{
  "name": "VM-tips 2018",
  "root": "/home/jakob/personal/WednesdayWorldCup",
  "sub_name": "Du kanske är bättre på foppol än jag - men jag är helt djävla dum i huvet",
  "logdir": "log",
  "data": {
    "src": "github",
    "dir": "data",
    "refresh": false,
    "url": "https://raw.githubusercontent.com/lsv/fifa-worldcup-2018/master/data.json",
    "extension": ".json"
  },
  "players": [
    "Johan",
    "Niklas T",
    "Niklas J",
    "Nes",
    "Filip",
    "Adam",
    "David",
    "Viktor",
    "Daniel",
    "Jern",
    "Jesper",
    "Eric",
    "Fager",
    "Svennis"
  ],
  "score": {
    "simple":{
      "group":{

      },
      "playoff":{
        "correct_game":{
          "16": 4,
          "8": 5,
          "4": 7,
          "2": 9
        },
        "wrong_game":{
          "16": 3,
          "8": 4,
          "4": 6
        }
      },
      "winner": 10,
      "bronze": 5,
      "top_scorer": 5,
      "top_scorer_goal": 3
    },
    "lindqvist_divergence": {
      "k": 3,
      "norm_exponent": 2
    },
    "odds": {
      "use": true,
      "source": "local"
    }
  },
  "naming": {
    "group_prefix": "Grupp "
  }
}
